<?xml version="1.0" encoding="utf-8" ?>
<!DOCTYPE svg PUBLIC "-//W3C//DTD SVG 1.1//EN" "http://www.w3.org/Graphics/SVG/1.1/DTD/svg11.dtd">
<svg height="529" version="1.1" width="1082" xmlns="http://www.w3.org/2000/svg">
<rect fill="#ffffff" height="85" stroke="#ffffff" stroke-width="1" width="104" x="194" y="314"/>
<rect fill="none" height="85" stroke="#000000" stroke-width="1" width="104" x="194" y="314"/>
<text font-family="Dialog" font-size="12" x="225" y="327">
Contact</text>
<rect fill="#000000" height="1" stroke="#000000" stroke-width="1" width="104" x="194" y="337"/>
<text font-family="Dialog" font-size="12" x="198" y="351">
name : string</text>
<text font-family="Dialog" font-size="12" x="198" y="367">
... : ...</text>
<rect fill="#000000" height="1" stroke="#000000" stroke-width="1" width="104" x="194" y="377"/>
<rect fill="#ffffff" height="104" stroke="#ffffff" stroke-width="1" width="104" x="14" y="302"/>
<rect fill="none" height="104" stroke="#000000" stroke-width="1" width="104" x="14" y="302"/>
<text font-family="Dialog" font-size="12" x="29" y="315">
AddressBook</text>
<rect fill="#000000" height="1" stroke="#000000" stroke-width="1" width="104" x="14" y="325"/>
<text font-family="Dialog" font-size="12" x="18" y="339">
name : string</text>
<text font-family="Dialog" font-size="12" x="18" y="355">
newAttr : Integer</text>
<text font-family="Dialog" font-size="12" x="18" y="371">
newAttr : Integer</text>
<rect fill="#000000" height="1" stroke="#000000" stroke-width="1" width="104" x="14" y="381"/>
<text font-family="Dialog" font-size="12" x="18" y="395">
newOperation()</text>
<rect fill="#ffffff" height="85" stroke="#ffffff" stroke-width="1" width="96" x="470" y="178"/>
<rect fill="none" height="85" stroke="#000000" stroke-width="1" width="96" x="470" y="178"/>
<text font-family="Dialog" font-size="12" x="480" y="191">
CustomValue</text>
<rect fill="#000000" height="1" stroke="#000000" stroke-width="1" width="96" x="470" y="201"/>
<text font-family="Dialog" font-size="12" x="474" y="215">
value : string</text>
<rect fill="#000000" height="1" stroke="#000000" stroke-width="1" width="96" x="470" y="233"/>
<rect fill="#ffffff" height="101" stroke="#ffffff" stroke-width="1" width="112" x="730" y="134"/>
<rect fill="none" height="101" stroke="#000000" stroke-width="1" width="112" x="730" y="134"/>
<text font-family="Dialog" font-size="12" x="750" y="147">
CustomField</text>
<rect fill="#000000" height="1" stroke="#000000" stroke-width="1" width="112" x="730" y="157"/>
<text font-family="Dialog" font-size="12" x="734" y="171">
name : string</text>
<text font-family="Dialog" font-size="12" x="734" y="187">
regex : string</text>
<rect fill="#000000" height="1" stroke="#000000" stroke-width="1" width="112" x="730" y="205"/>
<rect fill="#ffffff" height="69" stroke="#ffffff" stroke-width="1" width="95" x="178" y="42"/>
<rect fill="none" height="69" stroke="#000000" stroke-width="1" width="95" x="178" y="42"/>
<text font-family="Dialog" font-size="12" x="215" y="55">
Tag</text>
<rect fill="#000000" height="1" stroke="#000000" stroke-width="1" width="95" x="178" y="65"/>
<text font-family="Dialog" font-size="12" x="182" y="79">
name : string</text>
<rect fill="#000000" height="1" stroke="#000000" stroke-width="1" width="95" x="178" y="89"/>
<polyline fill="none" points="730,182 565,182" stroke="#000000" stroke-width="1"/>
<polygon fill="#000000" points="730,182 720,187 710,182 720,177" stroke="#000000" stroke-width="1"/>
<polygon fill="none" points="730,182 720,187 710,182 720,177" stroke="#000000" stroke-width="1"/>
<text font-family="Dialog" font-size="12" x="711" y="177">
1</text>
<text font-family="Dialog" font-size="12" x="571" y="177">
0..*</text>
<polyline fill="none" points="297,314 470,262" stroke="#000000" stroke-width="1"/>
<polygon fill="#000000" points="297,314 305,306 316,309 308,315" stroke="#000000" stroke-width="1"/>
<polygon fill="none" points="297,314 305,306 316,309 308,315" stroke="#000000" stroke-width="1"/>
<text font-family="Dialog" font-size="12" x="312" y="299">
1</text>
<text font-family="Dialog" font-size="12" x="438" y="259">
0..*</text>
<rect fill="#ffffff" height="69" stroke="#ffffff" stroke-width="1" width="116" x="174" y="182"/>
<rect fill="none" height="69" stroke="#000000" stroke-width="1" width="116" x="174" y="182"/>
<text font-family="Dialog" font-size="12" x="211" y="195">
Tagged</text>
<rect fill="#000000" height="1" stroke="#000000" stroke-width="1" width="116" x="174" y="205"/>
<text font-family="Dialog" font-size="12" x="178" y="219">
createdAt : datetime</text>
<rect fill="#000000" height="1" stroke="#000000" stroke-width="1" width="116" x="174" y="229"/>
<polyline fill="none" points="220,314 220,250" stroke="#000000" stroke-width="1"/>
<text font-family="Dialog" font-size="12" x="199" y="297">
1</text>
<text font-family="Dialog" font-size="12" x="194" y="277">
0..*</text>
<polyline fill="none" points="220,182 220,110" stroke="#000000" stroke-width="1"/>
<text font-family="Dialog" font-size="12" x="194" y="165">
0..*</text>
<text font-family="Dialog" font-size="12" x="199" y="137">
1</text>
<polyline fill="none" points="117,357 194,357" stroke="#000000" stroke-width="1"/>
<text font-family="Dialog" font-size="12" x="128" y="352">
1</text>
<text font-family="Dialog" font-size="12" x="170" y="352">
0..*</text>
<polygon fill="#ffffff" points="894,170 1009,170 1019,180 1019,228 894,228 894,170" stroke="#ffffff" stroke-width="1"/>
<polyline fill="none" points="894,170 1009,170 1019,180 1019,228 894,228 894,170" stroke="#000000" stroke-width="1"/>
<polygon fill="#ffffff" points="1009,170 1019,180 1009,180 1009,170" stroke="#ffffff" stroke-width="1"/>
<polyline fill="none" points="1009,170 1019,180 1009,180 1009,170" stroke="#000000" stroke-width="1"/>
<text font-family="Dialog" font-size="12" x="897" y="185">
Web page, </text>
<text font-family="Dialog" font-size="12" x="897" y="200">
internet messaging,</text>
<text font-family="Dialog" font-size="12" x="897" y="215">
email, etc.</text>
<line fill="#333399" stroke="#333399" stroke-width="1" x1="894" x2="889" y1="202" y2="202"/>
<line fill="#333399" stroke="#333399" stroke-width="1" x1="884" x2="879" y1="202" y2="202"/>
<line fill="#333399" stroke="#333399" stroke-width="1" x1="874" x2="869" y1="202" y2="202"/>
<line fill="#333399" stroke="#333399" stroke-width="1" x1="864" x2="859" y1="202" y2="202"/>
<line fill="#333399" stroke="#333399" stroke-width="1" x1="854" x2="849" y1="202" y2="202"/>
<line fill="#333399" stroke="#333399" stroke-width="1" x1="844" x2="841" y1="202" y2="202"/>
<polygon fill="#ffffff" points="690,14 916,14 926,24 926,94 690,94 690,14" stroke="#ffffff" stroke-width="1"/>
<polyline fill="none" points="690,14 916,14 926,24 926,94 690,94 690,14" stroke="#000000" stroke-width="1"/>
<polygon fill="#ffffff" points="916,14 926,24 916,24 916,14" stroke="#ffffff" stroke-width="1"/>
<polyline fill="none" points="916,14 926,24 916,24 916,14" stroke="#000000" stroke-width="1"/>
<text font-family="Dialog" font-size="12" x="693" y="29">
Regex can be usefull for validation.</text>
<text font-family="Dialog" font-size="12" x="693" y="59">
We can specify it dynamically or</text>
<text font-family="Dialog" font-size="12" x="693" y="74">
imported it by doctrine fixtures</text>
<text font-family="Dialog" font-size="12" x="693" y="89">
for known fields fields (email, web page)</text>
<line fill="#333399" stroke="#333399" stroke-width="1" x1="794" x2="794" y1="94" y2="99"/>
<line fill="#333399" stroke="#333399" stroke-width="1" x1="794" x2="794" y1="104" y2="109"/>
<line fill="#333399" stroke="#333399" stroke-width="1" x1="794" x2="794" y1="114" y2="119"/>
<line fill="#333399" stroke="#333399" stroke-width="1" x1="794" x2="794" y1="124" y2="129"/>
<rect fill="#ffffff" height="69" stroke="#ffffff" stroke-width="1" width="106" x="466" y="330"/>
<rect fill="none" height="69" stroke="#000000" stroke-width="1" width="106" x="466" y="330"/>
<text font-family="Dialog" font-size="12" x="496" y="343">
Address</text>
<rect fill="#000000" height="1" stroke="#000000" stroke-width="1" width="106" x="466" y="353"/>
<text font-family="Dialog" font-size="12" x="470" y="367">
addressFields : ...</text>
<rect fill="#000000" height="1" stroke="#000000" stroke-width="1" width="106" x="466" y="377"/>
<rect fill="#ffffff" height="69" stroke="#ffffff" stroke-width="1" width="95" x="474" y="446"/>
<rect fill="none" height="69" stroke="#000000" stroke-width="1" width="95" x="474" y="446"/>
<text font-family="Dialog" font-size="12" x="506" y="459">
Event</text>
<rect fill="#000000" height="1" stroke="#000000" stroke-width="1" width="95" x="474" y="469"/>
<text font-family="Dialog" font-size="12" x="478" y="483">
date : datetime</text>
<rect fill="#000000" height="1" stroke="#000000" stroke-width="1" width="95" x="474" y="493"/>
<polyline fill="none" points="297,358 466,358" stroke="#000000" stroke-width="1"/>
<polygon fill="#000000" points="297,358 307,353 317,358 307,363" stroke="#000000" stroke-width="1"/>
<polygon fill="none" points="297,358 307,353 317,358 307,363" stroke="#000000" stroke-width="1"/>
<text font-family="Dialog" font-size="12" x="308" y="353">
1</text>
<text font-family="Dialog" font-size="12" x="442" y="353">
0..*</text>
<polyline fill="none" points="297,398 474,446" stroke="#000000" stroke-width="1"/>
<polygon fill="#000000" points="297,398 307,395 316,403 305,405" stroke="#000000" stroke-width="1"/>
<polygon fill="none" points="297,398 307,395 316,403 305,405" stroke="#000000" stroke-width="1"/>
<text font-family="Dialog" font-size="12" x="313" y="395">
1</text>
<text font-family="Dialog" font-size="12" x="451" y="433">
0..*</text>
<rect fill="#ffffff" height="69" stroke="#ffffff" stroke-width="1" width="95" x="746" y="342"/>
<rect fill="none" height="69" stroke="#000000" stroke-width="1" width="95" x="746" y="342"/>
<text font-family="Dialog" font-size="12" x="756" y="355">
CustomLabel</text>
<rect fill="#000000" height="1" stroke="#000000" stroke-width="1" width="95" x="746" y="365"/>
<text font-family="Dialog" font-size="12" x="750" y="379">
name : string</text>
<rect fill="#000000" height="1" stroke="#000000" stroke-width="1" width="95" x="746" y="389"/>
<polyline fill="none" points="565,262 746,342" stroke="#000000" stroke-width="1"/>
<text font-family="Dialog" font-size="12" x="581" y="261">
0..*</text>
<text font-family="Dialog" font-size="12" x="724" y="325">
0..1</text>
<polyline fill="none" points="571,374 746,374" stroke="#000000" stroke-width="1"/>
<text font-family="Dialog" font-size="12" x="577" y="369">
0..*</text>
<text font-family="Dialog" font-size="12" x="721" y="369">
0..1</text>
<polyline fill="none" points="568,446 746,410" stroke="#000000" stroke-width="1"/>
<text font-family="Dialog" font-size="12" x="574" y="434">
0..*</text>
<text font-family="Dialog" font-size="12" x="716" y="405">
0..1</text>
<polygon fill="#ffffff" points="906,346 1057,346 1067,356 1067,404 906,404 906,346" stroke="#ffffff" stroke-width="1"/>
<polyline fill="none" points="906,346 1057,346 1067,356 1067,404 906,404 906,346" stroke="#000000" stroke-width="1"/>
<polygon fill="#ffffff" points="1057,346 1067,356 1057,356 1057,346" stroke="#ffffff" stroke-width="1"/>
<polyline fill="none" points="1057,346 1067,356 1057,356 1057,346" stroke="#000000" stroke-width="1"/>
<text font-family="Dialog" font-size="12" x="909" y="361">
Personal, work,</text>
<text font-family="Dialog" font-size="12" x="909" y="376">
anniversary, home,</text>
<text font-family="Dialog" font-size="12" x="909" y="391">
skype, google messanger.</text>
<line fill="#333399" stroke="#333399" stroke-width="1" x1="906" x2="901" y1="375" y2="375"/>
<line fill="#333399" stroke="#333399" stroke-width="1" x1="896" x2="891" y1="375" y2="375"/>
<line fill="#333399" stroke="#333399" stroke-width="1" x1="886" x2="881" y1="375" y2="375"/>
<line fill="#333399" stroke="#333399" stroke-width="1" x1="876" x2="871" y1="375" y2="375"/>
<line fill="#333399" stroke="#333399" stroke-width="1" x1="866" x2="861" y1="375" y2="375"/>
<line fill="#333399" stroke="#333399" stroke-width="1" x1="856" x2="851" y1="375" y2="375"/>
<line fill="#333399" stroke="#333399" stroke-width="1" x1="846" x2="841" y1="375" y2="375"/>
</svg>
